MVA BkgYields
h_09 129724.178108
h_29 134144.388745
h_49 136615.544305
h_69 137795.904377
h_07 62120.4171556
h_27 66540.6742027
h_47 69011.8104815
h_67 70192.1972872
h_10 8564.62342408
h_50 7601.69759391
h_52 15250.9899624
h_54 28270.6200704
h_56 51523.7605768
h_19 138288.741953
h_9 46962.4479152
