MVA BkgYields
h_09 4502.56959917
h_29 4595.32965103
h_49 4640.26758116
h_69 4658.99193365
h_07 1775.00500356
h_27 1867.76400232
h_47 1912.70186297
h_67 1931.4266827
h_10 160.704621706
h_50 149.700177043
h_52 322.8081087
h_54 656.990521706
h_56 1331.45768307
h_19 4663.27544821
h_9 2822.91893899
