Bin Sig
1&0.0\\ \hline
2&0.00653900389239\\ \hline
3&0.0063356011276\\ \hline
4&0.00806648212883\\ \hline
5&0.00971285638701\\ \hline
6&0.0158972849765\\ \hline
7&0.0279164328357\\ \hline
8&0.0440224301555\\ \hline
9&0.0557090806856\\ \hline
10&0.0457419368573\\ \hline
11&0.0523603761705\\ \hline
12&0.0564153980802\\ \hline
13&0.0564888472727\\ \hline
14&0.0580608203771\\ \hline
15&0.0290763113076\\ \hline
16&0.067872272314\\ \hline
17&0.0963459835961\\ \hline
18&0.0438743497095\\ \hline
19&-0.0393813107619\\ \hline
20&0.0\\ \hline
21&0.0\\ \hline
22&0.0\\ \hline
23&-0.257491936763\\ \hline
24&-0.438828137775\\ \hline
25&0.0\\ \hline
