Bin Sig
1 0.0
2 0.212900675301
3 0.253479343588
4 0.199801636895
5 0.472521823167
6 0.742115959196
7 0.701283783523
8 0.704039154136
9 0.716514353063
10 0.645928791226
11 0.609060885198
12 1.08339980958
13 1.56639679025
14 1.77765488384
15 2.06216233803
16 2.39920407546
17 2.74178699545
18 3.54248101589
19 5.45863587713
20 12.6334506365
