Bin Sig
1&Not Defined \\ \hline
2&Not Defined \\ \hline
3&-0.0438424520345\\ \hline
4&-0.0302745187073\\ \hline
5&0.0568033771327\\ \hline
6&0.428619000742\\ \hline
7&0.694395790685\\ \hline
8&0.858641996253\\ \hline
9&0.706001148807\\ \hline
10&0.840426475388\\ \hline
11&0.998599133167\\ \hline
12&1.11682880011\\ \hline
13&1.3113403724\\ \hline
14&0.995909035309\\ \hline
15&0.784508872318\\ \hline
16&0.604682169663\\ \hline
17&0.335538613371\\ \hline
18&0.377340248145\\ \hline
19&0.163341617956\\ \hline
20&0.0506287901122\\ \hline
21&0.154888729331\\ \hline
22&0.144984410541\\ \hline
23&0.0407513810256\\ \hline
24&0.16841143264\\ \hline
25&0.265312035895\\ \hline
