Bin Yields
1 0.0
2 60.51121521
3 776.619613647
4 1493.39031982
5 1576.11981201
6 2220.29089355
7 2297.1048584
8 1166.81460571
9 451.613006592
10 201.124965668
11 72.7490539551
12 51.0892486572
13 33.3120155334
14 24.2786712646
15 9.73267412186
16 9.25740194321
17 10.5018233061
18 0.0302392244339
19 0.22947716713
20 3.59683418274
21 4.9126534462
22 3.60841739178
23 0.641557127237
24 0.548806339502
25 1.41523212194
26 0.576934188604
27 0.166775733232
28 0.757593750954
29 0.227445721626
30 0.0688238143921
31 0.104542076588
32 -0.494429767132
33 0.0
34 0.0
35 0.0
