Bin Sig
1&0.0\\ \hline
2&0.000690372662132\\ \hline
3&0.00494515394107\\ \hline
4&0.00758450076989\\ \hline
5&0.00802266535608\\ \hline
6&0.0124278539115\\ \hline
7&0.0252405803103\\ \hline
8&0.0416003120149\\ \hline
9&0.0525993447463\\ \hline
10&0.0463367101208\\ \hline
11&0.0292043920137\\ \hline
12&0.0223613861773\\ \hline
13&0.0227739826344\\ \hline
14&0.0120464830158\\ \hline
15&0.0159168888199\\ \hline
16&0.0228557456178\\ \hline
17&-0.0116100899177\\ \hline
18&-0.00870631085592\\ \hline
19&0.0\\ \hline
20&0.025821917872\\ \hline
21&0.041026165706\\ \hline
22&0.0504786602895\\ \hline
23&0.0699658069186\\ \hline
24&0.0\\ \hline
25&0.0\\ \hline
