Bin Sig
1&Not Defined \\ \hline
2&0.0\\ \hline
3&0.0138664752218\\ \hline
4&0.00168193039965\\ \hline
5&0.0117327371049\\ \hline
6&0.0140258845773\\ \hline
7&0.0151481408362\\ \hline
8&0.0151156327708\\ \hline
9&0.0151445864231\\ \hline
10&0.0163333310194\\ \hline
11&0.0157733841645\\ \hline
12&0.0172729787538\\ \hline
13&0.0214705430716\\ \hline
14&0.0251852942755\\ \hline
15&0.0313897725463\\ \hline
16&0.030459331252\\ \hline
17&0.0346017460827\\ \hline
18&0.0407021961555\\ \hline
19&0.0503180543503\\ \hline
20&0.0440015487268\\ \hline
21&0.0094419144911\\ \hline
22&0.0237329261441\\ \hline
23&0.0264288266995\\ \hline
24&0.0417535265001\\ \hline
25&0.0601187603841\\ \hline
