Bin Sig
1 0.230174819277
2 0.220135977431
3 0.420690644845
4 0.484353234781
5 0.4626580392
6 0.61727197937
7 0.799639074281
8 0.859706568864
9 0.962906564996
10 1.26766199669
11 1.65237768159
12 1.92246494617
13 2.38186166486
14 2.62685745462
15 2.92447671828
16 3.49499854741
17 3.37737128196
18 2.55140683212
19 1.53935730137
20 1.10642451985
21 0.939317420452
22 0.612687095756
23 0.460738498235
24 0.373537905489
25 0.404549575762
26 0.185926724293
27 0.233475503304
28 0.65298999509
29 0.333788592808
30 0.602086075653
