Bin Yields
1 0.0
2 1.55632603168
3 3.50872600079
4 4.16413712502
5 13.0366520882
6 25.4587545395
7 29.1631555557
8 35.1007156372
9 41.6290645599
10 43.1558742523
11 46.5326271057
12 94.4099273682
13 155.963829041
14 202.839981079
15 270.880226135
16 365.857849121
17 491.24899292
18 756.363250732
19 1415.69085693
20 3707.06762695
