Bin Sig
1 -0.0626636064831
2 0.439686722969
3 0.769939094238
4 0.857689051129
5 0.861990194826
6 1.0636542304
7 1.14347326297
8 2.22512051447
9 3.71821195056
10 4.88559689284
11 7.034407785
12 8.76905368485
13 14.4022303904
14 19.6610049382
15 23.0491587735
16 20.749858079
17 14.900402154
18 10.5310174672
19 9.56037072267
20 9.66223210234
21 6.42836046511
22 8.907539828
23 1.87042498837
24 2.90804551766
25 3.77706109501
