Bin Yields
1 35.2429466248
2 31.9771060944
3 49.3341274261
4 93.2267303467
5 144.016746521
6 188.504470825
7 273.691818237
8 381.967544556
9 516.35874939
10 649.20690918
11 736.358215332
12 773.937164307
13 873.539703369
14 1028.3380127
15 1122.93139648
16 1066.48571777
17 819.338439941
18 493.706176758
19 276.707725525
20 198.487083435
21 121.064575195
22 82.1394195557
23 65.0975723267
24 51.7235488892
25 29.2016944885
26 15.1330490112
27 26.6390228271
28 30.2561397552
29 22.0953702927
30 17.1178750992
