Bin Sig
1&Not Defined \\ \hline
2&Not Defined \\ \hline
3&Not Defined \\ \hline
4&Not Defined \\ \hline
5&Not Defined \\ \hline
6&Not Defined \\ \hline
7&Not Defined \\ \hline
8&Not Defined \\ \hline
9&Not Defined \\ \hline
10&Not Defined \\ \hline
11&Not Defined \\ \hline
12&Not Defined \\ \hline
13&Not Defined \\ \hline
14&Not Defined \\ \hline
15&Not Defined \\ \hline
16&Not Defined \\ \hline
17&Not Defined \\ \hline
18&Not Defined \\ \hline
19&Not Defined \\ \hline
20&0.0184771863514\\ \hline
