Bin Yields
1 1992.51513672
2 4033.29272461
3 3998.3001709
4 4166.38146973
5 4394.41455078
6 4576.92382812
7 5149.75146484
8 5775.03076172
9 6196.86279297
10 6736.95849609
11 7392.93579102
12 7739.37841797
13 7976.97583008
14 8230.28076172
15 8467.62792969
16 8959.60449219
17 9970.12304688
18 10910.4204102
19 11267.0996094
20 11545.0068359
21 12471.8208008
22 13325.5014648
23 13994.0478516
24 15297.2915039
25 16662.4223633
26 17915.7958984
27 19607.2587891
28 21666.9931641
29 23231.9394531
30 24550.0625
31 25764.4570312
32 18743.0541992
