Bin Yields
1 10513.8515625
2 52525.734375
3 94257.4414062
4 89363.1992188
5 57079.4101562
6 30131.0253906
7 15476.9125977
8 8161.36303711
9 4430.85510254
10 2496.22766113
11 1471.34020996
12 887.117462158
13 543.945404053
14 342.032394409
15 217.057350159
16 138.963375092
17 93.2351989746
18 63.5498428345
19 42.2133255005
20 29.0392065048
21 21.7022476196
22 16.1053709984
23 11.0734758377
24 7.81614255905
25 5.85912847519
