Mass SigYield
hp250_AFII 0.285681949935
hp300_AFII 0.253035837654
hp350_AFII 0.226566740754
hp400_AFII 0.21754021716
hp500_AFII 0.193084893929
hp600_AFII 0.178105316535
hp700_AFII 0.187379610058
hp800_AFII 0.189725205317
hp900_AFII 0.190373594995
hp1000_AFII 0.199158793819
hp1200_AFII 0.226966269802
hp1400_AFII 0.244418500196
hp1600_AFII 0.252869097666
hp1800_AFII 0.299572078675
hp2000_AFII 0.321254922093
hp2500_AFII 0.383094175104
hp3000_AFII 0.401694662245
