Mass SigYield
hp250_AFII 0.525553812162
hp300_AFII 0.472786181389
hp350_AFII 0.44552146502
hp400_AFII 0.41341440579
hp500_AFII 0.368291229653
hp600_AFII 0.362029303915
hp700_AFII 0.343909461599
hp800_AFII 0.359082385419
hp900_AFII 0.355732593644
hp1000_AFII 0.362050546588
hp1200_AFII 0.371059982577
hp1400_AFII 0.394976612722
hp1600_AFII 0.428045034518
hp1800_AFII 0.463697577702
hp2000_AFII 0.480396304194
hp2500_AFII 0.578419887921
hp3000_AFII 0.609112070881
