Mass SigYield
hp250_AFII 0.646840185927
hp300_AFII 0.594012531214
hp350_AFII 0.523677095098
hp400_AFII 0.516686850753
hp500_AFII 0.474225846277
hp600_AFII 0.437186026281
hp700_AFII 0.413728423632
hp800_AFII 0.413542466513
hp900_AFII 0.39619645551
hp1000_AFII 0.42809058159
hp1200_AFII 0.454539728581
hp1400_AFII 0.509428336719
hp1600_AFII 0.469254232093
hp1800_AFII 0.48430093021
hp2000_AFII 0.588488394146
hp2500_AFII 0.590509179547
hp3000_AFII 0.721848730704
