Mass SigYield
hp250_AFII 6063.60121548
hp300_AFII 5825.32573856
hp350_AFII 5263.41984466
hp400_AFII 4952.16522026
hp500_AFII 3907.93221068
hp600_AFII 3516.72099614
hp700_AFII 3126.71855715
hp800_AFII 2822.49475735
hp900_AFII 2686.64422518
hp1000_AFII 2572.79815997
hp1200_AFII 2399.32132661
hp1400_AFII 2270.1318205
hp1600_AFII 1998.69060586
hp1800_AFII 1971.70987952
hp2000_AFII 1947.59723389
hp2500_AFII 1811.72361183
hp3000_AFII 1425.46229744
