Mass SigYield
hp250_AFII 12935.1991723
hp300_AFII 12835.0553339
hp350_AFII 12218.7739841
hp400_AFII 11356.7097585
hp500_AFII 9328.20727518
hp600_AFII 8239.81501621
hp700_AFII 7399.56905678
hp800_AFII 6717.45132343
hp900_AFII 6189.58511579
hp1000_AFII 5886.30969207
hp1200_AFII 5303.54716015
hp1400_AFII 4880.10925356
hp1600_AFII 4512.91771662
hp1800_AFII 4320.77435574
hp2000_AFII 4144.1046972
hp2500_AFII 3891.62384415
hp3000_AFII 3268.73989105
