Mass SigYield
hp250_AFII 1976.74241428
hp300_AFII 1903.49191797
hp350_AFII 1795.32956228
hp400_AFII 1742.99121435
hp500_AFII 1395.4271701
hp600_AFII 1258.93262646
hp700_AFII 1220.03117177
hp800_AFII 1110.84981392
hp900_AFII 1003.9872027
hp1000_AFII 1019.2516396
hp1200_AFII 902.216001537
hp1400_AFII 797.222914755
hp1600_AFII 656.961791202
hp1800_AFII 638.102716297
hp2000_AFII 625.60003376
hp2500_AFII 521.677515745
hp3000_AFII 413.101427972
