Mass SigYield
hp250_AFII 0.491319519732
hp300_AFII 0.438160803612
hp350_AFII 0.38892928903
hp400_AFII 0.374825639228
hp500_AFII 0.326769460146
hp600_AFII 0.324624661704
hp700_AFII 0.310086619102
hp800_AFII 0.31147792842
hp900_AFII 0.318451666314
hp1000_AFII 0.328276749773
hp1200_AFII 0.360610489456
hp1400_AFII 0.398422989786
hp1600_AFII 0.401064239106
hp1800_AFII 0.452556102541
hp2000_AFII 0.485236135024
hp2500_AFII 0.541993440954
hp3000_AFII 0.52614655456
