Mass SigYield
hp250_AFII 0.33877745345
hp300_AFII 0.299568265113
hp350_AFII 0.267086381418
hp400_AFII 0.257900040099
hp500_AFII 0.224733938091
hp600_AFII 0.210613812899
hp700_AFII 0.222761605554
hp800_AFII 0.224948406205
hp900_AFII 0.222856259172
hp1000_AFII 0.23597053573
hp1200_AFII 0.267157400671
hp1400_AFII 0.281452555738
hp1600_AFII 0.285576648665
hp1800_AFII 0.350330580099
hp2000_AFII 0.374953244907
hp2500_AFII 0.444650807399
hp3000_AFII 0.462462663899
