Mass SigYield
hp250_AFII 873.327469572
hp300_AFII 819.648189127
hp350_AFII 750.2224361
hp400_AFII 721.957431368
hp500_AFII 640.217916816
hp600_AFII 551.374879181
hp700_AFII 548.397863224
hp800_AFII 469.786316097
hp900_AFII 466.908112168
hp1000_AFII 486.753979146
hp1200_AFII 447.364014268
hp1400_AFII 419.193158776
hp1600_AFII 351.502723545
hp1800_AFII 305.464219928
hp2000_AFII 353.251930535
hp2500_AFII 261.757811964
hp3000_AFII 219.582410455
