Mass SigYield
hp250_AFII 136.114599362
hp300_AFII 134.20582404
hp350_AFII 123.625680506
hp400_AFII 135.126394063
hp500_AFII 124.844457895
hp600_AFII 122.196244568
hp700_AFII 128.130232021
hp800_AFII 117.748748958
hp900_AFII 126.855388209
hp1000_AFII 148.633894533
hp1200_AFII 98.6685538888
hp1400_AFII 83.2879709601
hp1600_AFII 79.7268903255
hp1800_AFII 64.1226507723
hp2000_AFII 46.0035070777
hp2500_AFII 49.8727584183
hp3000_AFII 25.4311855435