Mass SigYield
hp250_AFII 212.326499492
hp300_AFII 207.34118408
hp350_AFII 195.16894187
hp400_AFII 211.259083599
hp500_AFII 196.89577657
hp600_AFII 179.107649863
hp700_AFII 184.870566025
hp800_AFII 168.575546712
hp900_AFII 190.112670109
hp1000_AFII 181.774132878
hp1200_AFII 142.21605286
hp1400_AFII 121.564360172
hp1600_AFII 107.633311123
hp1800_AFII 73.4056546986
hp2000_AFII 67.1018124521
hp2500_AFII 54.8035489619
hp3000_AFII 34.5702630281
