Mass SigYield
hp250_AFII 4784.30220233
hp300_AFII 4692.12412754
hp350_AFII 4633.06660968
hp400_AFII 4327.19922949
hp500_AFII 3562.20836806
hp600_AFII 3313.14335847
hp700_AFII 2964.02449453
hp800_AFII 2780.83054087
hp900_AFII 2515.29649365
hp1000_AFII 2447.8605305
hp1200_AFII 2018.14889663
hp1400_AFII 1761.82175714
hp1600_AFII 1548.31686988
hp1800_AFII 1386.23157799
hp2000_AFII 1285.86544204
hp2500_AFII 1114.90387952
hp3000_AFII 913.579015255
