Mass SigYield
hp250_AFII 2118.06209485
hp300_AFII 2044.74723889
hp350_AFII 1911.29630452
hp400_AFII 1851.79721703
hp500_AFII 1490.86503637
hp600_AFII 1321.21205261
hp700_AFII 1320.11474258
hp800_AFII 1192.39918283
hp900_AFII 1082.41805351
hp1000_AFII 1094.0376479
hp1200_AFII 990.029453363
hp1400_AFII 861.362888753
hp1600_AFII 706.156214923
hp1800_AFII 713.337748051
hp2000_AFII 681.423399568
hp2500_AFII 579.930454254
hp3000_AFII 474.113096058
