Mass SigYield
hp250_AFII 0.564366459085
hp300_AFII 0.519835270011
hp350_AFII 0.486166416671
hp400_AFII 0.462851184014
hp500_AFII 0.41999808905
hp600_AFII 0.409558312887
hp700_AFII 0.395143961948
hp800_AFII 0.399165823051
hp900_AFII 0.395047750764
hp1000_AFII 0.404419607819
hp1200_AFII 0.429211217497
hp1400_AFII 0.461187519938
hp1600_AFII 0.487618833819
hp1800_AFII 0.534005447562
hp2000_AFII 0.555954682553
hp2500_AFII 0.626884641399
hp3000_AFII 0.649659878582
