MVA BkgYields
h_09 220996.853549
h_29 230940.029195
h_49 236935.692083
h_69 240158.048818
h_07 114593.043647
h_27 124536.383931
h_47 130532.098495
h_67 133754.444203
h_10 20660.4065581
h_50 17835.7536284
h_52 33560.4405183
h_54 58730.4220642
h_56 100559.862093
h_19 241657.064552
h_9 63706.8661286
