Mass SigYield
hp250_AFII 436.911506027
hp300_AFII 395.87473087
hp350_AFII 390.688936561
hp400_AFII 335.368906006
hp500_AFII 290.484634072
hp600_AFII 221.059765667
hp700_AFII 201.966187894
hp800_AFII 249.136928499
hp900_AFII 235.070098162
hp1000_AFII 230.012237817
hp1200_AFII 241.161284447
hp1400_AFII 244.329407722
hp1600_AFII 221.092017382
hp1800_AFII 237.03312996
hp2000_AFII 214.794436306
hp2500_AFII 207.764992386
hp3000_AFII 196.550103605
