Mass SigYield
hp250_AFII 597.02688472
hp300_AFII 800.479151234
hp350_AFII 946.082486093
hp400_AFII 1029.35289237
hp500_AFII 1203.90299854
hp600_AFII 1191.70246205
hp700_AFII 1227.19791001
hp800_AFII 1219.9416877
hp900_AFII 1209.81662573
hp1000_AFII 1096.65042683
hp1200_AFII 882.664554
hp1400_AFII 641.575671762
hp1600_AFII 513.602064222
hp1800_AFII 354.403568119
hp2000_AFII 290.045142353
hp2500_AFII 124.926954865
hp3000_AFII 83.9405628145
