Mass SigYield
hp250_AFII 133.518788248
hp300_AFII 120.060891122
hp350_AFII 108.192893893
hp400_AFII 102.07362932
hp500_AFII 128.025123358
hp600_AFII 99.4336319268
hp700_AFII 103.34996897
hp800_AFII 86.9048153758
hp900_AFII 72.6872526705
hp1000_AFII 75.3789814711
hp1200_AFII 79.1204625964
hp1400_AFII 32.9715709891
hp1600_AFII 84.9537683725
hp1800_AFII 50.2138882875
hp2000_AFII 31.8828570843
hp2500_AFII 48.7499749362
hp3000_AFII 31.653740257
