Mass SigYield
hp250_AFII 1768.35255602
hp300_AFII 1859.09326106
hp350_AFII 1868.78304832
hp400_AFII 1951.03111175
hp500_AFII 1733.96323463
hp600_AFII 1585.05158514
hp700_AFII 1515.23310196
hp800_AFII 1400.13866544
hp900_AFII 1264.96613988
hp1000_AFII 1250.5260874
hp1200_AFII 1059.75094798
hp1400_AFII 838.065440893
hp1600_AFII 738.263882458
hp1800_AFII 599.959950387
hp2000_AFII 567.727192461
hp2500_AFII 456.973300159
hp3000_AFII 357.035393357
