Mass SigYield
hp250_AFII 815.505853072
hp300_AFII 825.496339723
hp350_AFII 814.54856804
hp400_AFII 853.603763551
hp500_AFII 705.856331885
hp600_AFII 655.709785014
hp700_AFII 662.3456119
hp800_AFII 592.059582904
hp900_AFII 572.612846553
hp1000_AFII 544.040205538
hp1200_AFII 483.864993602
hp1400_AFII 376.057951212
hp1600_AFII 341.15031904
hp1800_AFII 285.74356401
hp2000_AFII 270.876049578
hp2500_AFII 216.964897096
hp3000_AFII 155.02951771
