Mass SigYield
hp250_AFII 5278.76439068
hp300_AFII 5149.25755198
hp350_AFII 5050.75786094
hp400_AFII 4691.98477367
hp500_AFII 3867.10047805
hp600_AFII 3606.60877454
hp700_AFII 3269.95055848
hp800_AFII 2883.80336624
hp900_AFII 2681.10679576
hp1000_AFII 2517.72423387
hp1200_AFII 2227.23603704
hp1400_AFII 2067.28377977
hp1600_AFII 1911.69221264
hp1800_AFII 1818.07170078
hp2000_AFII 1757.23984754
hp2500_AFII 1548.5057075
hp3000_AFII 1364.37128079
