Mass SigYield
hp250_AFII 1208.24495487
hp300_AFII 1150.71873902
hp350_AFII 1081.3804622
hp400_AFII 1008.59094815
hp500_AFII 833.318134472
hp600_AFII 731.365534723
hp700_AFII 675.443923295
hp800_AFII 624.060866296
hp900_AFII 601.93902126
hp1000_AFII 606.188344121
hp1200_AFII 576.558076084
hp1400_AFII 587.768017456
hp1600_AFII 490.779933453
hp1800_AFII 521.616146356
hp2000_AFII 472.518667221
hp2500_AFII 408.142914712
hp3000_AFII 342.22767663
