Mass SigYield
hp250_AFII 1656.54707283
hp300_AFII 1767.48172507
hp350_AFII 1784.32798137
hp400_AFII 1870.75433844
hp500_AFII 1627.3282561
hp600_AFII 1509.49939793
hp700_AFII 1430.5229739
hp800_AFII 1335.38133103
hp900_AFII 1208.65094391
hp1000_AFII 1186.19205016
hp1200_AFII 991.792714924
hp1400_AFII 806.646675289
hp1600_AFII 673.557702273
hp1800_AFII 560.329783857
hp2000_AFII 542.316714108
hp2500_AFII 419.696825564
hp3000_AFII 328.850190222
