Mass SigYield
hp250_AFII 5599.13163097
hp300_AFII 5456.43221721
hp350_AFII 5361.52125613
hp400_AFII 4955.97292022
hp500_AFII 4067.43757051
hp600_AFII 3761.40459716
hp700_AFII 3425.78546925
hp800_AFII 3072.5435292
hp900_AFII 2849.31294715
hp1000_AFII 2692.13783255
hp1200_AFII 2390.98883209
hp1400_AFII 2260.12244925
hp1600_AFII 2070.94699866
hp1800_AFII 1996.42764691
hp2000_AFII 1901.15080833
hp2500_AFII 1699.01388788
hp3000_AFII 1499.2715373
